rv64um-p-div: success
rv64um-p-divu: success
rv64um-p-divuw: success
rv64um-p-divw: success
rv64um-p-mul: success
rv64um-p-mulh: success
rv64um-p-mulhsu: success
rv64um-p-mulhu: success
rv64um-p-mulw: success
rv64um-p-rem: success
rv64um-p-remu: success
rv64um-p-remuw: success
rv64um-p-remw: success
rv64um-v-div: fail
rv64um-v-divu: fail
rv64um-v-divuw: fail
rv64um-v-divw: fail
rv64um-v-mul: fail
rv64um-v-mulh: fail
rv64um-v-mulhsu: fail
rv64um-v-mulhu: fail
rv64um-v-mulw: fail
rv64um-v-rem: fail
rv64um-v-remu: fail
rv64um-v-remuw: fail
rv64um-v-remw: fail
